1. Introduction • tickTack
…
Note: mapping of mutations onto segments is independent of the
reference genome, and it will work as far as both mutation and CNA
segments are mapped to the same reference.

tickTack supports two coordinates reference genomes:

hg19 or GRCh37;

hg38 or GRCh38 (default),

for which two dataframes are stored inside the package.

tickTack::chr_coordinates_hg19
#> # A tibble: 24 × 6
#>    chr      length       from         to centromerStart centromerEnd
#>    <chr>     <int>      <dbl>      <dbl>          <dbl>        <dbl>
#>  1 chr1  249250621          0  249250621      121535434    124535434
#>  2 chr2  243199373  249250621  492449994      341576792    344576792
#>  3 chr3  198022430  492449994  690472424      582954848    585954848
#>  4 chr4  191154276  690472424  881626700      740132541    743132541
#>  5 chr5  180915260  881626700 1062541960      928032341    931032341
#>  6 chr6  171115067 1062541960 1233657027     1121372126   1124372126
#>  7 chr7  159138663 1233657027 1392795690     1291711358   1294711358
#>  8 chr8  146364022 1392795690 1539159712     1436634577   1439634577
#>  9 chr9  141213431 1539159712 1680373143     1586527391   1589527391
#> 10 chr10 135534747 1680373143 1815907890     1719628078   1722628078
#> # ℹ 14 more rows

tickTack::chr_coordinates_GRCh38
#> # A tibble: 24 × 6
#>    chr      length       from         to centromerStart centromerEnd
#>    <chr>     <dbl>      <dbl>      <dbl>          <dbl>        <dbl>
#>  1 chr1  248956422          0  248956422      122026459    124849229
#>  2 chr2  242193529  248956422  491149951      341144567    341144567
#>  3 chr3  198295559  491149951  689445510      581922409    582703370
#>  4 chr4  190214555  689445510  879660065      739157571    739157571
#>  5 chr5  181538259  879660065 1061198324      926145965    929381368
#>  6 chr6  170805979 1061198324 1232004303     1119752212   1119752212
#>  7 chr7  159345973 1232004303 1391350276     1290173956   1293382091
#>  8 chr8  145138636 1391350276 1536488912     1435384020   1435384020
#>  9 chr9  138394717 1536488912 1674883629     1579878547   1579878547
#> 10 chr10 133797422 1674883629 1808681051     1714570311   1716429449
#> # ℹ 14 more rows
…
