2. Timing Clonal Peaks
…
Results

The results object contains two components:
inference_results and summarized_results. We
can inspect these to understand the timing of clonal peaks:

# View summarized results
results$summarized_results

## # A tibble: 72 × 7
##    tau_low tau_mean tau_high segment karyotype chr   segment_id              
##      <dbl>    <dbl>    <dbl>   <int> <chr>     <chr> <chr>                   
##  1   0.807    0.890    0.953       2 2:2       chr1  chr1_790009_13212499    
##  2   0.843    0.911    0.963       3 2:2       chr1  chr1_13212500_33458785  
##  3   0.816    0.889    0.944       5 2:2       chr1  chr1_33564127_56834601  
##  4   0.863    0.903    0.936       6 2:2       chr1  chr1_56834602_121499999 
##  5   0.395    0.683    0.890      10 2:2       chr1  chr1_143277461_149255831
##  6   0.806    0.866    0.914      11 2:2       chr1  chr1_149255832_196892499
##  7   0.808    0.862    0.909      12 2:2       chr1  chr1_196892500_247247500
##  8   0.543    0.790    0.947      13 2:2       chr1  chr1_247247501_249250620
##  9   0.769    0.825    0.875      30 2:2       chr4  chr4_74473_48199999     
## 10   0.459    0.766    0.953      31 2:2       chr4  chr4_48200000_52699999  
## # ℹ 62 more rows

# View detailed inference results
results$inference_results

## # A tibble: 1,152,000 × 5
##      tau segment karyotype chr   segment_id          
##    <dbl>   <int> <chr>     <chr> <chr>               
##  1 0.853       2 2:2       chr1  chr1_790009_13212499
##  2 0.873       2 2:2       chr1  chr1_790009_13212499
##  3 0.869       2 2:2       chr1  chr1_790009_13212499
##  4 0.912       2 2:2       chr1  chr1_790009_13212499
##  5 0.891       2 2:2       chr1  chr1_790009_13212499
##  6 0.889       2 2:2       chr1  chr1_790009_13212499
##  7 0.889       2 2:2       chr1  chr1_790009_13212499
##  8 0.922       2 2:2       chr1  chr1_790009_13212499
##  9 0.935       2 2:2       chr1  chr1_790009_13212499
## 10 0.912       2 2:2       chr1  chr1_790009_13212499
## # ℹ 1,151,990 more rows
…
