…
### Results

The `results` object contains two components: `inference_results` and
`summarized_results`. We can inspect these to understand the timing of
clonal peaks:

``` r
# View summarized results
results$summarized_results
```

    ## # A tibble: 72 × 7
    ##    tau_low tau_mean tau_high segment karyotype chr   segment_id              
    ##      <dbl>    <dbl>    <dbl>   <int> <chr>     <chr> <chr>                   
    ##  1   0.809    0.890    0.953       2 2:2       chr1  chr1_790009_13212499    
    ##  2   0.844    0.912    0.962       3 2:2       chr1  chr1_13212500_33458785  
    ##  3   0.820    0.889    0.943       5 2:2       chr1  chr1_33564127_56834601  
    ##  4   0.863    0.902    0.935       6 2:2       chr1  chr1_56834602_121499999 
    ##  5   0.399    0.683    0.891      10 2:2       chr1  chr1_143277461_149255831
    ##  6   0.806    0.865    0.914      11 2:2       chr1  chr1_149255832_196892499
    ##  7   0.809    0.863    0.909      12 2:2       chr1  chr1_196892500_247247500
    ##  8   0.537    0.791    0.947      13 2:2       chr1  chr1_247247501_249250620
    ##  9   0.768    0.825    0.874      30 2:2       chr4  chr4_74473_48199999     
    ## 10   0.451    0.768    0.954      31 2:2       chr4  chr4_48200000_52699999  
    ## # ℹ 62 more rows

``` r
# View detailed inference results
results$inference_results
```

    ## # A tibble: 1,152,000 × 5
    ##      tau segment karyotype chr   segment_id          
    ##    <dbl>   <int> <chr>     <chr> <chr>               
    ##  1 0.918       2 2:2       chr1  chr1_790009_13212499
    ##  2 0.869       2 2:2       chr1  chr1_790009_13212499
    ##  3 0.869       2 2:2       chr1  chr1_790009_13212499
    ##  4 0.887       2 2:2       chr1  chr1_790009_13212499
    ##  5 0.912       2 2:2       chr1  chr1_790009_13212499
    ##  6 0.878       2 2:2       chr1  chr1_790009_13212499
    ##  7 0.935       2 2:2       chr1  chr1_790009_13212499
    ##  8 0.920       2 2:2       chr1  chr1_790009_13212499
    ##  9 0.854       2 2:2       chr1  chr1_790009_13212499
    ## 10 0.832       2 2:2       chr1  chr1_790009_13212499
    ## # ℹ 1,151,990 more rows
…
