4. Timing Clonal Peaks in a hierarchical fashioin
…
We can inspect the main output of interest to understand the timing
of clonal peaks. results$draws_and_summary contains: -
draws the draws from the approximate
posterior distribution of the taus and weights; -
summary a summary with the main statistics
of the approximate posterior distributions; -
summarized_results represents the clock
assignment, a tibble with the estimate of taus for each segment with a
copy number event that has been included in the hierarchical
inference

# View summary for a specific K, here K = 2
results$draws_and_summary[[2]]$summary

## # A tibble: 24 × 7
##    variable    mean   median      sd      mad         q5    q95
##    <chr>      <dbl>    <dbl>   <dbl>    <dbl>      <dbl>  <dbl>
##  1 tau[1]   0.0767  0.0721   0.0271  0.0252   0.0400     0.125 
##  2 tau[2]   0.956   0.958    0.0156  0.0154   0.927      0.977 
##  3 w[1,1]   0.799   0.937    0.269   0.0903   0.144      0.999 
##  4 w[2,1]   0.907   0.971    0.153   0.0369   0.574      0.999 
##  5 w[3,1]   0.978   0.991    0.0406  0.0105   0.915      0.999 
##  6 w[4,1]   0.993   0.995    0.00614 0.00360  0.983      0.999 
##  7 w[5,1]   0.0247  0.000544 0.0937  0.000800 0.00000197 0.124 
##  8 w[6,1]   0.00837 0.000412 0.0369  0.000588 0.00000734 0.0362
##  9 w[7,1]   0.00333 0.00108  0.00765 0.00125  0.000106   0.0142
## 10 w[8,1]   0.886   0.981    0.206   0.0276   0.378      1.00  
## # ℹ 14 more rows
…
