…
We can inspect the main output of interest to understand the timing of
clonal peaks. `results$draws_and_summary` contains: - **`draws`** the
draws from the approximate posterior distribution of the taus and
weights; - **`summary`** a summary with the main statistics of the
approximate posterior distributions; - **`summarized_results`**
represents the clock assignment, a tibble with the estimate of taus for
each segment with a copy number event that has been included in the
hierarchical inference

``` r
# View summary for a specific K, here K = 2
results$draws_and_summary[[2]]$summary
```

    ## # A tibble: 50 × 7
    ##    variable    mean  median      sd     mad       q5     q95
    ##    <chr>      <dbl>   <dbl>   <dbl>   <dbl>    <dbl>   <dbl>
    ##  1 tau[1]   0.0804  0.0794  0.0194  0.0192  0.0529   0.114  
    ##  2 tau[2]   0.988   0.989   0.00360 0.00318 0.982    0.993  
    ##  3 w[1,1]   0.986   0.990   0.0125  0.00778 0.962    0.997  
    ##  4 w[2,1]   0.995   0.996   0.00481 0.00295 0.985    0.999  
    ##  5 w[3,1]   0.736   0.738   0.0472  0.0509  0.657    0.805  
    ##  6 w[4,1]   0.755   0.757   0.0287  0.0276  0.705    0.800  
    ##  7 w[5,1]   0.00194 0.00105 0.00267 0.00101 0.000183 0.00685
    ##  8 w[6,1]   0.00517 0.00182 0.0113  0.00203 0.000188 0.0187 
    ##  9 w[7,1]   0.0253  0.0141  0.0341  0.0132  0.00228  0.0837 
    ## 10 w[8,1]   0.725   0.726   0.0268  0.0262  0.679    0.769  
    ## # ℹ 40 more rows
…
