6. Simulate data • tickTack
…
We can inspect the main output of interest to understand the timing
of clonal peaks. results$draws_and_summary contains: -
draws the draws from the approximate
posterior distribution of the taus and weights; -
summary a summary with the main statistics
of the approximate posterior distributions; -
summarized_results represents the clock
assignment, a tibble with the estimate of taus for each segment with a
copy number event that has been included in the hierarchical
inference

# View summary for a specific K, here K = 2
results$draws_and_summary[[2]]$summary

## # A tibble: 50 × 7
##    variable    mean  median      sd     mad       q5     q95
##    <chr>      <dbl>   <dbl>   <dbl>   <dbl>    <dbl>   <dbl>
##  1 tau[1]   0.0796  0.0786  0.0192  0.0190  0.0524   0.113  
##  2 tau[2]   0.988   0.989   0.00359 0.00318 0.982    0.993  
##  3 w[1,1]   0.985   0.988   0.0130  0.00844 0.959    0.997  
##  4 w[2,1]   0.994   0.996   0.00501 0.00308 0.984    0.999  
##  5 w[3,1]   0.735   0.738   0.0472  0.0508  0.657    0.804  
##  6 w[4,1]   0.755   0.757   0.0287  0.0276  0.705    0.799  
##  7 w[5,1]   0.00208 0.00116 0.00279 0.00109 0.000208 0.00726
##  8 w[6,1]   0.00546 0.00202 0.0114  0.00223 0.000220 0.0196 
##  9 w[7,1]   0.0264  0.0150  0.0347  0.0138  0.00250  0.0863 
## 10 w[8,1]   0.725   0.725   0.0268  0.0262  0.678    0.769  
## # ℹ 40 more rows
…
